<!doctype html>
<html lang="en">
<head></head>
<body>
<script></script>
<style></style>
<div class="MuiBox-root css-0"></div>
<style data-emotion="css 6oncud">.css-6oncud .SnackbarContainer-top.SnackbarContainer-top{top:80px;}@media (max-width:899.95px){.css-6oncud .SnackbarContainer-top.SnackbarContainer-top{top:56px;}}.css-6oncud .SnackbarContainer-right.SnackbarContainer-right{right:16px;}</style>
<div class="css-6oncud"></div>
<script src="/_next/static/chunks/webpack-58e0435be6337545.js" async></script>
<script>(self.__next_f=self.__next_f||[]).push([0]);self.__next_f.push([2,null])</script>
<script>self.__next_f.push([1,"1:HL[\"/_next/static/css/81db3ee1ce5e709d.css\",\"style\"]\n2:HL[\"/_next/static/css/b14784ac04515dd7.css\",\"style\"]\n"])</script>
<script></script>
<script></script>
<script></script>
<script></script>
<script></script>
<script></script>
<script></script>
<script></script>
<script></script>
<script></script>
<script>self.__next_f.push([1,"18:Tc3a,"])</script>
<script></script>
<script>self.__next_f.push([1,"19:T927,"])</script>
<script></script>
<script></script>
<script></script>
<script></script>
<script></script>
<script></script>
<script></script>
<script>self.__next_f.push([1,"20:T9ac,"])</script>
<script></script>
<script>self.__next_f.push([1,"21:T880,"])</script>
<script></script>
<script></script>
<script></script>
<script></script>
<script></script>
<script></script>
<script>self.__next_f.push([1,"5:[\"$\",\"$L27\",null,{\"state\":{\"mutations\":[],\"queries\":[{\"state\":{\"data\":{\"pages\":[{\"data\":[{\"slug\":\"no-friday-deploys-fullstack-php-developer-gdansk-php\",\"title\":\"FullStack PHP Developer\",\"requiredSkills\":[\"PHP\",\"HTML5\",\"MySQL\",\"JavaScript\",\"CSS\",\"Vue.js\",\"Symfony\",\"Laravel\"],\"niceToHaveSkills\":null,\"workplaceType\":\"office\",\"workingTime\":\"full_time\",\"experienceLevel\":\"senior\",\"employmentTypes\":[{\"to\":19000,\"from\":14000,\"type\":\"b2b\",\"gross\":false,\"to_chf\":4261.187,\"to_eur\":4507.142,\"to_gbp\":3801.368,\"to_pln\":19000,\"to_usd\":4695.66,\"currency\":\"pln\",\"from_chf\":3139.822,\"from_eur\":3321.052,\"from_gbp\":2801.008,\"from_pln\":14000,\"from_usd\":3459.96,\"fromChf\":3139.822,\"fromEur\":3321.052,\"fromGbp\":2801.008,\"fromPln\":14000,\"fromUsd\":3459.96,\"toChf\":4261.187,\"toEur\":4507.142,\"toGbp\":3801.368,\"toPln\":19000,\"toUsd\":4695.66}],\"categoryId\":3,\"multilocation\":[{\"city\":\"Gdańsk\",\"slug\":\"no-friday-deploys-fullstack-php-developer-gdansk-php\",\"street\":\"-\",\"latitude\":54.3520252,\"longitude\":18.6466384},{\"city\":\"Sopot\",\"slug\":\"no-friday-deploys-fullstack-php-developer-sopot-php\",\"street\":\"-\",\"latitude\":54.441581,\"longitude\":18.5600956},{\"city\":\"Gdynia\",\"slug\":\"no-friday-deploys-fullstack-php-developer-gdynia-php\",\"street\":\"aleja Zwycięstwa 96/98\",\"latitude\":54.494888,\"longitude\":18.538108}],\"city\":\"Gdańsk\",\"street\":\"-\",\"latitude\":54.3520252,\"longitude\":18.6466384,\"remoteInterview\":true,\"companyName\":\"No Friday Deploys\",\"companyLogoThumbUrl\":\"https://imgproxy.justjoinit.tech/AHKn6g2tlmQ8LCUPz3SjkKkdcIHL1xm8b90coOcqJWg/h:200/w:200/plain/https://imgproxy.justjoinit.tech/5bTNyUcXWV6F8znBZopD3xK7wtrDtfKaQsYIJARdgKg/h:200/w:200/plain/https://public.justjoin.it/offers/company_logos/original/9a8b59a56251701b3731c01fee70d8b7e1314d4d.jpg\",\"publishedAt\":\"2025-01-24T16:01:44.851Z\",\"openToHireUkrainians\":false},{\"slug\":\"the-software-house-senior-php-developer---symfony-gliwice-php\",\"title\":\"Senior PHP Developer - Symfony\",\"requiredSkills\":[\"Symfony\",\"MySQL\",\"PHP 7.x\",\"Docker\",\"Git\",\"English\",\"AWS\"],\"niceToHaveSkills\":null,\"workplaceType\":\"remote\",\"workingTime\":\"full_time\",\"experienceLevel\":\"senior\",\"employmentTypes\":[{\"to\":24000,\"from\":15500,\"type\":\"b2b\",\"gross\":false,\"to_chf\":5382.552,\"to_eur\":5693.232,\"to_gbp\":4801.728,\"to_pln\":24000,\"to_usd\":5931.36,\"currency\":\"pln\",\"from_chf\":3476.2315,\"from_eur\":3676.879,\"from_gbp\":3101.116,\"from_pln\":15500,\"from_usd\":3830.67,\"fromChf\":3476.2315,\"fromEur\":3676.879,\"fromGbp\":3101.116,\"fromPln\":15500,\"fromUsd\":3830.67,\"toChf\":5382.552,\"toEur\":5693.232,\"toGbp\":4801.728,\"toPln\":24000,\"toUsd\":5931.36}],\"categoryId\":3,\"multilocation\":[{\"city\":\"Gliwice\",\"slug\":\"the-software-house-senior-php-developer---symfony-gliwice-php\",\"street\":\"Dolnych Wałów 8\",\"latitude\":50.2943988,\"longitude\":18.6683398},{\"city\":\"Warszawa\",\"slug\":\"the-software-house-senior-php-developer---symfony-warszawa-php\",\"street\":\"Twarda 18\",\"latitude\":52.2347064,\"longitude\":20.9993674},{\"city\":\"Wrocław\",\"slug\":\"the-software-house-senior-php-developer---symfony-wroclaw-php\",\"street\":\"Centrum\",\"latitude\":51.1092948,\"longitude\":17.0386019}],\"city\":\"Gliwice\",\"street\":\"Dolnych Wałów 8\",\"latitude\":50.2943988,\"longitude\":18.6683398,\"remoteInterview\":true,\"companyName\":\"The Software House\",\"companyLogoThumbUrl\":\"https://imgproxy.justjoinit.tech/ANFjjWOkHZzReZ7Pvn318w16dWk0dg6R0jff3Qnfiqg/h:200/w:200/plain/https://public.justjoin.it/offers/company_logos/original/6c23a81ed073631c22f5427cce6da566e9041716.png\",\"publishedAt\":\"2025-01-25T12:00:00.000Z\",\"openToHireUkrainians\":false},{\"slug\":\"square-one-php-developer-gdansk-php-7420798d\",\"title\":\"PHP Developer\",\"requiredSkills\":[\"PHP\",\"SQL\",\"Symfony\",\"Kubernetes\",\"TypeScript\",\"Node.js\"],\"niceToHaveSkills\":null,\"workplaceType\":\"remote\",\"workingTime\":\"full_time\",\"experienceLevel\":\"mid\",\"employmentTypes\":[{\"to\":22000,\"from\":18000,\"type\":\"mandate_contract\",\"gross\":true,\"to_chf\":4934.006,\"to_eur\":5218.796,\"to_gbp\":4401.584,\"to_pln\":22000,\"to_usd\":5437.08,\"currency\":\"pln\",\"from_chf\":4036.914,\"from_eur\":4269.924,\"from_gbp\":3601.296,\"from_pln\":18000,\"from_usd\":4448.52,\"fromChf\":4036.914,\"fromEur\":4269.924,\"fromGbp\":3601.296,\"fromPln\":18000,\"fromUsd\":4448.52,\"toChf\":4934.006,\"toEur\":5218.796,\"toGbp\":4401.584,\"toPln\":22000,\"toUsd\":5437.08},{\"to\":22000,\"from\":18000,\"type\":\"b2b\",\"gross\":false,\"to_chf\":4934.006,\"to_eur\":5218.796,\"to_gbp\":4401.584,\"to_pln\":22000,\"to_usd\":5437.08,\"currency\":\"pln\",\"from_chf\":4036.914,\"from_eur\":4269.924,\"from_gbp\":3601.296,\"from_pln\":18000,\"from_usd\":4448.52,\"fromChf\":4036.914,\"fromEur\":4269.924,\"fromGbp\":3601.296,\"fromPln\":18000,\"fromUsd\":4448.52,\"toChf\":4934.006,\"toEur\":5218.796,\"toGbp\":4401.584,\"toPln\":22000,\"toUsd\":5437.08}],\"categoryId\":3,\"multilocation\":[{\"city\":\"Gdańsk\",\"slug\":\"square-one-php-developer-gdansk-php-7420798d\",\"street\":\"-\",\"latitude\":54.3520252,\"longitude\":18.6466384},{\"city\":\"Wrocław\",\"slug\":\"square-one-php-developer-wroclaw-php-a44d6f8f\",\"street\":\"-\",\"latitude\":51.1092948,\"longitude\":17.0386019},{\"city\":\"Kraków\",\"slug\":\"square-one-php-developer-krakow-php-0a9aa5b8\",\"street\":\"-\",\"latitude\":50.0646501,\"longitude\":19.9449799},{\"city\":\"Poznań\",\"slug\":\"square-one-php-developer-poznan-php-02b03d6b\",\"street\":\"-\",\"latitude\":52.4056786,\"longitude\":16.9312766},{\"city\":\"Szczecin\",\"slug\":\"square-one-php-developer-szczecin-php-f60c021d\",\"street\":\"-\",\"latitude\":53.4285438,\"longitude\":14.5528116},{\"city\":\"Olsztyn\",\"slug\":\"square-one-php-developer-olsztyn-php\",\"street\":\"-\",\"latitude\":53.778422,\"longitude\":20.4801193},{\"city\":\"Rzeszów\",\"slug\":\"square-one-php-developer-rzeszow-php-55753622\",\"street\":\"-\",\"latitude\":50.0411867,\"longitude\":21.9991196},{\"city\":\"Łódź\",\"slug\":\"square-one-php-developer-lodz-php-b2ef2854\",\"street\":\"-\",\"latitude\":51.7592924,\"longitude\":19.4558778},{\"city\":\"Warszawa\",\"slug\":\"square-one-php-developer-warszawa-php-76e7f35d\",\"street\":\"Puławska 2\",\"latitude\":52.2296756,\"longitude\":21.0122287}],\"city\":\"Gdańsk\",\"street\":\"-\",\"latitude\":54.3520252,\"longitude\":18.6466384,\"remoteInterview\":true,\"companyName\":\"Square One\",\"companyLogoThumbUrl\":\"https://imgproxy.justjoinit.tech/t4wCAW3BV4YmutSe__ZlGcvlfFoVAFrNU7RfKZQnye4/h:200/w:200/plain/https://imgproxy.justjoinit.tech/qF9taTsdfMAqzSjnNKfk0_aqj0kIFpxhfhtef8_GXxU/h:200/w:200/plain/https://imgproxy.justjoinit.tech/ekBcvE2nzuGy6_JrJBsAP3IgccCNTHBcmve9n11SJTk/h:200/w:200/plain/https://imgproxy.justjoinit.tech/-7SsP5PCiPA5g9IiBmvkowjx0jOazqNipbIVXyc6tik/h:200/w:200/plain/https://public.justjoin.it/companies/logos/original/7ad4250e7bbd5f2e8d69f4eea59bad61bda1d455.png\",\"publishedAt\":\"2025-01-24T15:00:26.434Z\",\"openToHireUkrainians\":false},{\"slug\":\"team-connect-senior-php-developer-warszawa-php\",\"title\":\"Senior PHP Developer\",\"requiredSkills\":[\"CQRS\",\"English\",\"PHPUnit\",\"SQL\",\"Symfony\",\"PHP\",\"DDD\",\"REST API\",\"Behat\"],\"niceToHaveSkills\":null,\"workplaceType\":\"remote\",\"workingTime\":\"full_time\",\"experienceLevel\":\"senior\",\"employmentTypes\":[{\"to\":21000,\"from\":16000,\"type\":\"permanent\",\"gross\":true,\"to_chf\":4709.733,\"to_eur\":4981.578,\"to_gbp\":4201.512,\"to_pln\":21000,\"to_usd\":5189.94,\"currency\":\"pln\",\"from_chf\":3588.368,\"from_eur\":3795.488,\"from_gbp\":3201.152,\"from_pln\":16000,\"from_usd\":3954.24,\"fromChf\":3588.368,\"fromEur\":3795.488,\"fromGbp\":3201.152,\"fromPln\":16000,\"fromUsd\":3954.24,\"toChf\":4709.733,\"toEur\":4981.578,\"toGbp\":4201.512,\"toPln\":21000,\"toUsd\":5189.94}],\"categoryId\":3,\"multilocation\":[{\"city\":\"Warszawa\",\"slug\":\"team-connect-senior-php-developer-warszawa-php\",\"street\":\".\",\"latitude\":52.2296756,\"longitude\":21.0122287},{\"city\":\"Gdańsk\",\"slug\":\"team-connect-senior-php-developer-gdansk-php\",\"street\":\".\",\"latitude\":54.3520252,\"longitude\":18.6466384},{\"city\":\"Wrocław\",\"slug\":\"team-connect-senior-php-developer-wroclaw-php\",\"street\":\".\",\"latitude\":51.1092948,\"longitude\":17.0386019},{\"city\":\"Kraków\",\"slug\":\"team-connect-senior-php-developer-krakow-php\",\"street\":\".\",\"latitude\":50.0646501,\"longitude\":19.9449799},{\"city\":\"Katowice\",\"slug\":\"team-connect-senior-php-developer-katowice-php\",\"street\":\".\",\"latitude\":50.2648919,\"longitude\":19.0237815},{\"city\":\"Łódź\",\"slug\":\"team-connect-senior-php-developer-lodz-php\",\"street\":\".\",\"latitude\":51.7592924,\"longitude\":19.4558778},{\"city\":\"Lublin\",\"slug\":\"team-connect-senior-php-developer-lublin-php\",\"street\":\".\",\"latitude\":51.2509458,\"longitude\":22.5747275},{\"city\":\"Rzeszów\",\"slug\":\"team-connect-senior-php-developer-rzeszow-php\",\"street\":\".\",\"latitude\":50.0411867,\"longitude\":21.9991196}],\"city\":\"Warszawa\",\"street\":\".\",\"latitude\":52.2296756,\"longitude\":21.0122287,\"remoteInterview\":true,\"companyName\":\"Team Connect\",\"companyLogoThumbUrl\":\"https://imgproxy.justjoinit.tech/31g-x3O1QZA9NKY46kQKqyStVPVJ-LExICvFTpiuYOo/h:200/w:200/plain/https://imgproxy.justjoinit.tech/JHiy-h3F3ZYpG9OvFJab9a5wgSnlIn1NegwVxapbOr0/h:200/w:200/plain/https://public.justjoin.it/companies/logos/original/afc73b20a78f9827d90459c6aeb52cfb2f5480e6.png\",\"publishedAt\":\"2025-01-24T15:00:26.434Z\",\"openToHireUkrainians\":true}],\"meta\":{\"page\":1,\"totalItems\":304,\"totalPages\":4,\"prevPage\":null,\"nextPage\":2}}],\"pageParams\":[1]},\"dataUpdateCount\":0,\"dataUpdatedAt\":1734278305156,\"error\":null,\"errorUpdateCount\":0,\"errorUpdatedAt\":0,\"fetchFailureCount\":0,\"fetchFailureReason\":null,\"fetchMeta\":null,\"isInvalidated\":false,\"status\":\"success\",\"fetchStatus\":\"idle\"},\"queryKey\":[\"OFFERS\",{\"categories\":[6],\"sort\":{\"sortBy\":\"published\",\"orderBy\":\"DESC\"},\"page\":1,\"salaryCurrencies\":\"pln\"}],\"queryHash\":\"[\\\"OFFERS\\\",{\\\"categories\\\":[6],\\\"page\\\":1,\\\"salaryCurrencies\\\":\\\"pln\\\",\\\"sort\\\":{\\\"orderBy\\\":\\\"DESC\\\",\\\"sortBy\\\":\\\"published\\\"}}]\"},{\"state\":{\"data\":{\"count\":864},\"dataUpdateCount\":1,\"dataUpdatedAt\":1734278305169,\"error\":null,\"errorUpdateCount\":0,\"errorUpdatedAt\":0,\"fetchFailureCount\":0,\"fetchFailureReason\":null,\"fetchMeta\":null,\"isInvalidated\":false,\"status\":\"success\",\"fetchStatus\":\"idle\"},\"queryKey\":[\"OFFERS_COUNT\",{\"currency\":\"pln\",\"countAllBoardOffers\":false,\"filters\":{\"categories\":\"$28\"}}],\"queryHash\":\"[\\\"OFFERS_COUNT\\\",{\\\"countAllBoardOffers\\\":false,\\\"currency\\\":\\\"pln\\\",\\\"filters\\\":{\\\"categories\\\":[6]}}]\"},{\"state\":{\"data\":\"PL\",\"dataUpdateCount\":1,\"dataUpdatedAt\":1734278305156,\"error\":null,\"errorUpdateCount\":0,\"errorUpdatedAt\":0,\"fetchFailureCount\":0,\"fetchFailureReason\":null,\"fetchMeta\":null,\"isInvalidated\":false,\"status\":\"success\",\"fetchStatus\":\"idle\"},\"queryKey\":[\"userLocalization\"],\"queryHash\":\"[\\\"userLocalization\\\"]\"},{\"state\":{\"data\":\"pln\",\"dataUpdateCount\":1,\"dataUpdatedAt\":1734278305156,\"error\":null,\"errorUpdateCount\":0,\"errorUpdatedAt\":0,\"fetchFailureCount\":0,\"fetchFailureReason\":null,\"fetchMeta\":null,\"isInvalidated\":false,\"status\":\"success\",\"fetchStatus\":\"idle\"},\"queryKey\":[\"userCurrency\"],\"queryHash\":\"[\\\"userCurrency\\\"]\"}]},\"children\":[\"$\",\"$L29\",null,{\"selectedFilters\":{\"categories\":\"$28\"},\"offersList\":{\"from\":5,\"itemsCount\":100,\"params\":{\"categories\":[6],\"sort\":{\"sortBy\":\"published\",\"orderBy\":\"DESC\"},\"currency\":\"pln\"}},\"tenant\":\"JJIT\"}]}]\n"])</script>
</body>
</html>